4 Chargement des données – Mandat analyse de données de ventes Dunin
…
);

GO

7 vue d’ensembles

fact_etapes |> distinct()

# A tibble: 3,888 × 6
   createur              emplacement statut tempsCreation commande_id contrat_id
   <chr>                 <chr>       <chr>          <dbl> <chr>       <chr>     
 1 dunintech             Manufactur… Saisie             0 C-000001    ""        
 2 glebel                Manufactur… Saisie             0 C-000002    ""        
 3 clientweb             Client      Saisie             0 C-000003    ""        
 4 clientweb             Client      Saisie             0 C-000004    ""        
 5 clientweb             Client      Saisie             0 C-000005    ""        
 6 glebel                Manufactur… Saisie             0 C-000006    ""        
 7 info@groupenova.ca    Client      Saisie             0 C-000007    ""        
 8 alexcloutier2003@gma… Client      Saisie             0 C-000008    ""        
 9 dunintech             Manufactur… Saisie             0 C-000009    ""        
10 clientDunin           Client      Saisie             0 C-000010    ""        
# ℹ 3,878 more rows

fact_kits  |> distinct()

# A tibble: 20,498 × 114
   code  nom      qte qteTr typeKit unit  sousTotalKit sousTotalKitEff sousTotal
   <chr> <chr>  <dbl> <dbl> <chr>   <chr>        <dbl>           <dbl>     <dbl>
 1 ""    Conto…     0     0 ""      ***              0               0         0
 2 ""    Conto…     0     0 ""      ***              0               0         0
 3 ""    Conto…     1     0 ""      ***              0               0         0
 4 ""    Conto…     0     0 ""      ***              0               0         0
 5 ""    Conto…     0     0 ""      ***              0               0         0
 6 ""    Conto…     0     0 ""      ***              0               0         0
 7 ""    Conto…     0     0 ""      ***              0               0         0
 8 ""    Conto…     0     0 ""      ***              0               0         0
 9 ""    Conto…     0     0 ""      ***              0               0         0
10 ""    Conto…     0     0 ""      ***              0               0         0
# ℹ 20,488 more rows
# ℹ 105 more variables: sousTotalEff <dbl>, totalComptoir <dbl>,
#   totalComptoirEff <dbl>, nbComptoir <dbl>, longComptoir <dbl>,
#   surfaceComptoir <dbl>, cumulComptoir <dbl>, extraComptoir <dbl>,
#   comptoirMod <chr>, comptoirCouleur <chr>, comptoirGpCouleur <chr>,
#   sousTotalCab <dbl>, sousTotalPanel <dbl>, sousTotalMoulure <dbl>,
#   sousTotalAutre <dbl>, assemblage <chr>, gamme <chr>, serie <chr>, …

fact_lumieres  |> distinct()

# A tibble: 942 × 3
   modele         qte contrat_id 
   <chr>        <dbl> <chr>      
 1 PUCK120mm_NI     2 P-000390-S1
 2 PUCK79mm_NI      5 P-000390-S1
 3 PUCK79mm_WH      4 P-000390-S2
 4 PUCK79mm_WH      4 P-000554-S1
 5 PUCK79mm_WH      3 P-000715-S1
 6 PUCK79mm_WH      7 P-000715-S2
 7 PUCK79mm_NI      7 P-000773-S1
 8 PUCK120mm_NI     2 P-000907-S7
 9 PUCK79mm_NI      6 P-000907-S7
10 PUCK79mm_BL      3 P-000930-S1
# ℹ 932 more rows

transactions |> distinct()

# A tibble: 3,818 × 47
   code  nomClient codeClient2 typeClient delaiPrevExped nbJourValide statutCred
   <chr> <chr>     <chr>       <chr>               <dbl>        <dbl> <lgl>     
 1 C-00… "Avivia"  "Avivia"    particuli…              2           90 FALSE     
 2 C-00… ""        ""          particuli…              2           90 FALSE     
 3 C-00… "Avivia"  "Avivia"    particuli…              2           90 FALSE     
 4 C-00… "Avivia"  "Avivia"    particuli…              2           90 FALSE     
 5 C-00… "Avivia"  "Avivia"    particuli…              2           90 FALSE     
 6 C-00… "Avivia"  "Avivia"    particuli…              2           90 FALSE     
 7 C-00… ""        ""          particuli…              2           90 FALSE     
 8 C-00… "Avivia"  "Avivia"    particuli…              2           90 FALSE     
 9 C-00… ""        ""          particuli…              2           90 FALSE     
10 C-00… "Avivia"  "Avivia"    particuli…              2           90 FALSE     
# ℹ 3,808 more rows
# ℹ 40 more variables: validCred <lgl>, total <dbl>, totalHT <dbl>,
#   sousTotal <dbl>, sousTotal2 <dbl>, totalLivraison <dbl>,
#   totalInstall <dbl>, totalCEM <dbl>, qteItems <dbl>, qteItemsCab <dbl>,
#   promotions <dbl>, createurNom <chr>, createurCourriel <chr>,
#   division <chr>, projet_id <chr>, estImport <lgl>, estReprise <lgl>,
#   estCQ <lgl>, avecLivraison <lgl>, installation <lgl>, totalTx1 <dbl>, …

dim_dates  |> distinct()

# A tibble: 660 × 8
    date_id date       annee  mois nom_mois  jour jour_semaine nom_jour
      <int> <date>     <int> <int> <chr>    <int>        <int> <chr>   
 1 20220721 2022-07-21  2022     7 juillet     21            4 jeudi   
 2 20221012 2022-10-12  2022    10 octobre     12            3 mercredi
 3 20221013 2022-10-13  2022    10 octobre     13            4 jeudi   
 4 20221014 2022-10-14  2022    10 octobre     14            5 vendredi
 5 20221018 2022-10-18  2022    10 octobre     18            2 mardi   
 6 20221019 2022-10-19  2022    10 octobre     19            3 mercredi
 7 20221025 2022-10-25  2022    10 octobre     25            2 mardi   
 8 20221026 2022-10-26  2022    10 octobre     26            3 mercredi
 9 20221027 2022-10-27  2022    10 octobre     27            4 jeudi   
10 20221028 2022-10-28  2022    10 octobre     28            5 vendredi
# ℹ 650 more rows

dim_projets  |> distinct()

# A tibble: 2,035 × 13
   projet_id marche   division   courrielContact  nomContact   telephoneContact
   <chr>     <chr>    <chr>      <chr>            <chr>        <chr>           
 1 P-000001  ""       Division_1 "info@avivia.ca" "Mr Contact" ""              
 2 P-000002  ""       Division_1 ""               ""           ""              
 3 P-000004  ""       Division_1 ""               ""           ""              
 4 P-000006  ""       Division_1 ""               ""           ""              
 5 P-000011  ""       Division_1 ""               ""           ""              
 6 P-000013  ""       Division_1 "info@avivia.ca" "Mr Contact" ""              
 7 P-000018  ""       Division_1 ""               ""           ""              
 8 P-001796  "Quebec" Division_1 ""               ""           ""              
 9 P-000003  ""       Division_1 "info@avivia.ca" "Mr Contact" ""              
10 P-000005  ""       Division_1 "info@avivia.ca" "Mr Contact" ""              
# ℹ 2,025 more rows
# ℹ 7 more variables: coordsCommTxt <chr>, coordsExpedTxt <chr>,
#   coordsFactTxt <chr>, estReprise <lgl>, enFusion <lgl>, createurNom <chr>,
#   createurCourriel <chr>

dim_representants  |> distinct()

# A tibble: 2,035 × 4
   representant_id nom         codeRepresentant projet_id
             <int> <chr>       <chr>            <chr>    
 1               1 "Mr Robert" "003"            P-000001 
 2               2 ""          ""               P-000002 
 3               3 ""          ""               P-000004 
 4               4 ""          ""               P-000006 
 5               5 ""          ""               P-000011 
 6               6 "Mr Robert" "003"            P-000013 
 7               7 ""          ""               P-000018 
 8               8 ""          ""               P-001796 
 9               9 "Mr Robert" "003"            P-000003 
10              10 "Mr Robert" "003"            P-000005 
# ℹ 2,025 more rows

dim_clients |> distinct()

# A tibble: 4,532 × 4
   client_id nom      type        transaction_id
       <int> <chr>    <chr>       <chr>         
 1         1 "Avivia" particulier C-000089      
 2         2 ""       particulier C-000093      
 3         3 "Avivia" particulier C-000115      
 4         4 "Avivia" particulier C-000119      
 5         5 "Avivia" particulier C-000142      
 6         6 "Avivia" particulier C-000175      
 7         7 ""       particulier C-000330      
 8         8 "Avivia" particulier C-000344      
 9         9 ""       particulier C-000090      
10        10 "Avivia" particulier C-000220      
# ℹ 4,522 more rows

dim_adresses |> distinct()

# A tibble: 21,263 × 14
   codePost etatProv ligne1          ligne2 pays  region ville usage code  sorte
   <chr>    <chr>    <chr>           <chr>  <chr> <chr>  <chr> <chr> <chr> <chr>
 1 G0X2B0   Quebec   20 Route Goulet ""     Cana… R1     Sain… Fact  Fact  ""   
 2 G0A1L0   Quebec   110, route 138  ""     Cana… R1     Cap-… Exped Show… "WAR…
 3 G0X2B0   Quebec   20 Route Goulet ""     Cana… R1     Sain… Fact  Fact  ""   
 4 G0A1L0   Quebec   110, route 138  ""     Cana… R1     Cap-… Exped Show… "WAR…
 5 G0X2B0   Quebec   20 Route Goulet ""     Cana… R1     Sain… Fact  Fact  ""   
 6 G0A1L0   Quebec   110, route 138  ""     Cana… R1     Cap-… Exped Show… "WAR…
 7 G0X2B0   Quebec   20 Route Goulet ""     Cana… R1     Sain… Fact  Fact  ""   
 8 G0A1L0   Quebec   110, route 138  ""     Cana… R1     Cap-… Exped Show… "WAR…
 9 G0X2B0   Quebec   20 Route Goulet ""     Cana… R1     Sain… Fact  Fact  ""   
10 G0A1L0   Quebec   110, route 138  ""     Cana… R1     Cap-… Exped Show… "WAR…
# ℹ 21,253 more rows
# ℹ 4 more variables: projet_id <chr>, nom <chr>, contact <chr>,
#   adresse_id <int>
…
