2 Collecte et extractions des données – Mandat analyse de données de ventes Dunin
…
save(contrats_xmls_extracted_tables,file="data/extracted/contrats_xmls_extracted_tables.RData")

8 Données extraites

load("C:/Users/18195/Documents/dunin/data/extracted/commandes_xmls_extracted_tables.RData")
load("C:/Users/18195/Documents/dunin/data/extracted/contrats_xmls_extracted_tables.RData")
load("C:/Users/18195/Documents/dunin/data/extracted/projets_xmls_extracted_tables.RData")

8.1 Commandes

commandes_xmls_extracted_tables$DocumXML |> print()

$Comm
# A tibble: 714 × 173
   aNote   documSource estCQ   estCQSup estImport estReprise dateAcompte1Emis
   <chr>   <chr>       <chr>   <chr>    <chr>     <chr>      <chr>           
 1 "false" "false"     "false" "false"  "false"   "false"    2023/08/30      
 2 ""      ""          ""      ""       ""        ""         <NA>            
 3 "false" "false"     "false" "false"  "false"   "false"    <NA>            
 4 "false" "false"     "false" "false"  "false"   "false"    <NA>            
 5 "false" "false"     "false" "false"  "false"   "false"    <NA>            
 6 "false" "false"     "false" "false"  "false"   "false"    <NA>            
 7 "false" "false"     "false" "false"  "false"   "false"    <NA>            
 8 "false" "false"     "false" "false"  "false"   "false"    <NA>            
 9 "false" "false"     "false" "false"  "false"   "false"    <NA>            
10 "false" "false"     "false" "false"  "false"   "false"    2024/01/12      
# ℹ 704 more rows
# ℹ 166 more variables: fgfExclu <chr>, installExclu <chr>, matExclu <chr>,
#   moExclu <chr>, pourcAcompte1 <chr>, pourcAcompte2 <chr>, solde <chr>,
#   transportExclu <chr>, appNotifObligs <chr>, appNotifs <chr>,
#   codeClient2 <chr>, dateValidite <chr>, delaiPrevExped <chr>,
#   disclaimers <chr>, emplacementCre <chr>, enErreur <chr>, enPSD <chr>,
#   identCour <chr>, nbJourValide <chr>, nomClient <chr>, projet <chr>, …

$Etape
# A tibble: 2,439 × 6
   createur  dateCreation emplacement   statut tempsCreation    commande_id
   <chr>     <chr>        <chr>         <chr>  <chr>            <chr>      
 1 dunintech 2023/08/30   Manufacturier Saisie 2023/08/30 10:48 C-000001   
 2 dunintech 2023/08/30   Manufacturier Saisie 2023/08/30 10:48 C-000001   
 3 dunintech 2023/08/30   Manufacturier Saisie 2023/08/30 10:48 C-000001   
 4 glebel    2023/08/31   Manufacturier Saisie 2023/08/31 09:11 C-000002   
 5 glebel    2023/08/31   Manufacturier Saisie 2023/08/31 09:11 C-000002   
 6 glebel    2023/08/31   Manufacturier Saisie 2023/08/31 09:11 C-000002   
 7 clientweb 2023/09/14   Client        Saisie 2023/09/14 07:53 C-000003   
 8 clientweb 2023/09/14   Client        Saisie 2023/09/14 07:53 C-000003   
 9 clientweb 2023/09/14   Client        Saisie 2023/09/14 07:53 C-000003   
10 clientweb 2023/09/14   Client        Saisie 2023/09/14 08:19 C-000004   
# ℹ 2,429 more rows

$SommaireKit
# A tibble: 7,317 × 7
   code     no    ligne  pourcEsc pourcEscSup sousTotal commande_id
   <chr>    <chr> <chr>  <chr>    <chr>       <chr>     <chr>      
 1 k01      1     Custom 0        0           346.43    C-000001   
 2 Contour  <NA>  <NA>   0        0           0         C-000001   
 3 Plancher <NA>  <NA>   0        0           0         C-000001   
 4 Plafond  <NA>  <NA>   0        0           0         C-000001   
 5 k01      1     Custom 0        0           346.43    C-000001   
 6 Contour  <NA>  <NA>   0        0           0         C-000001   
 7 Plancher <NA>  <NA>   0        0           0         C-000001   
 8 Plafond  <NA>  <NA>   0        0           0         C-000001   
 9 k01      1     Custom 0        0           346.43    C-000001   
10 Contour  <NA>  <NA>   0        0           0         C-000001   
# ℹ 7,307 more rows

commandes_xmls_extracted_tables$EveXML |> print()

$Kit
# A tibble: 958 × 128
   porteModeleB                porteModeleBSensGrain porteModeleFacadeBSensGrain
   <chr>                       <chr>                 <chr>                      
 1 Manufacturier~PLAT 16mm_MDF sensGrain_Vert        sensGrain_Vert             
 2 <NA>                        <NA>                  sensGrain_Vert             
 3 <NA>                        <NA>                  <NA>                       
 4 <NA>                        <NA>                  <NA>                       
 5 <NA>                        <NA>                  <NA>                       
 6 Manufacturier~PLAT 16mm_MDF sensGrain_Vert        sensGrain_Vert             
 7 Manufacturier~PLAT_16mm_MDF sensGrain_Vert        sensGrain_Vert             
 8 Manufacturier~PLAT_16mm_MDF sensGrain_Vert        sensGrain_Vert             
 9 Manufacturier~7053          sensGrain_Vert        sensGrain_Vert             
10 Manufacturier~PLAT 16mm_MDF sensGrain_Vert        sensGrain_Vert             
# ℹ 948 more rows
# ℹ 125 more variables: porteModeleFacadeHSensGrain <chr>, porteModeleH <chr>,
#   porteModeleHSensGrain <chr>, beamModele <chr>, moulLumHeight <chr>,
#   moulLumModele <chr>, moulPiedHeight <chr>, moulPiedModele <chr>,
#   sousTotalKit <chr>, typeColor <chr>, porteModeleFacadeB <chr>,
#   porteModeleFacadeH <chr>, cle <chr>, code <chr>, enErreur <chr>,
#   estExtra <chr>, no <chr>, nom <chr>, qte <chr>, qteTr <chr>, …

$KitMurContour
# A tibble: 658 × 119
   epais              porteModeleB  porteModeleBSensGrain porteModeleFacadeBSe…¹
   <chr>              <chr>         <chr>                 <chr>                 
 1 152.39999999999998 Manufacturie… sensGrain_Vert        sensGrain_Vert        
 2 152.39999999999998 <NA>          <NA>                  <NA>                  
 3 152.39999999999998 <NA>          <NA>                  <NA>                  
 4 152.39999999999998 <NA>          <NA>                  <NA>                  
 5 152.39999999999998 Manufacturie… sensGrain_Vert        sensGrain_Vert        
 6 152.39999999999998 Manufacturie… sensGrain_Vert        sensGrain_Vert        
 7 152.39999999999998 Manufacturie… sensGrain_Vert        sensGrain_Vert        
 8 152.39999999999998 Manufacturie… sensGrain_Vert        sensGrain_Vert        
 9 152.39999999999998 Manufacturie… sensGrain_Vert        sensGrain_Vert        
10 152.39999999999998 Manufacturie… sensGrain_Vert        sensGrain_Vert        
# ℹ 648 more rows
# ℹ abbreviated name: ¹​porteModeleFacadeBSensGrain
# ℹ 115 more variables: porteModeleFacadeHSensGrain <chr>, porteModeleH <chr>,
#   porteModeleHSensGrain <chr>, beamModele <chr>, moulLumHeight <chr>,
#   moulLumModele <chr>, moulPiedHeight <chr>, moulPiedModele <chr>,
#   sousTotalKit <chr>, typeColor <chr>, porteModeleFacadeB <chr>,
#   porteModeleFacadeH <chr>, enErreur <chr>, estExtra <chr>, qte <chr>, …

$KitPlancher
# A tibble: 626 × 117
   porteModeleB                porteModeleBSensGrain porteModeleFacadeBSensGrain
   <chr>                       <chr>                 <chr>                      
 1 Manufacturier~PLAT 16mm_MDF sensGrain_Vert        sensGrain_Vert             
 2 <NA>                        <NA>                  <NA>                       
 3 <NA>                        <NA>                  <NA>                       
 4 <NA>                        <NA>                  <NA>                       
 5 Manufacturier~PLAT 16mm_MDF sensGrain_Vert        sensGrain_Vert             
 6 Manufacturier~PLAT_16mm_MDF sensGrain_Vert        sensGrain_Vert             
 7 Manufacturier~PLAT_16mm_MDF sensGrain_Vert        sensGrain_Vert             
 8 Manufacturier~PLAT 16mm_MDF sensGrain_Vert        sensGrain_Vert             
 9 Manufacturier~PLAT 16mm_MDF sensGrain_Vert        sensGrain_Vert             
10 Manufacturier~PLAT 16mm_MDF sensGrain_Vert        sensGrain_Vert             
# ℹ 616 more rows
# ℹ 114 more variables: porteModeleFacadeHSensGrain <chr>, porteModeleH <chr>,
#   porteModeleHSensGrain <chr>, beamModele <chr>, moulLumHeight <chr>,
#   moulLumModele <chr>, moulPiedHeight <chr>, moulPiedModele <chr>,
#   sousTotalKit <chr>, typeColor <chr>, porteModeleFacadeB <chr>,
#   porteModeleFacadeH <chr>, enErreur <chr>, estExtra <chr>, qte <chr>,
#   qteTr <chr>, aBomCustom <chr>, gTot <chr>, unit <chr>, …

$KitPlafond
# A tibble: 626 × 117
   porteModeleB                porteModeleBSensGrain porteModeleFacadeBSensGrain
   <chr>                       <chr>                 <chr>                      
 1 Manufacturier~PLAT 16mm_MDF sensGrain_Vert        sensGrain_Vert             
 2 <NA>                        <NA>                  <NA>                       
 3 <NA>                        <NA>                  <NA>                       
 4 <NA>                        <NA>                  <NA>                       
 5 Manufacturier~PLAT 16mm_MDF sensGrain_Vert        sensGrain_Vert             
 6 Manufacturier~PLAT_16mm_MDF sensGrain_Vert        sensGrain_Vert             
 7 Manufacturier~PLAT_16mm_MDF sensGrain_Vert        sensGrain_Vert             
 8 Manufacturier~PLAT 16mm_MDF sensGrain_Vert        sensGrain_Vert             
 9 Manufacturier~PLAT 16mm_MDF sensGrain_Vert        sensGrain_Vert             
10 Manufacturier~PLAT 16mm_MDF sensGrain_Vert        sensGrain_Vert             
# ℹ 616 more rows
# ℹ 114 more variables: porteModeleFacadeHSensGrain <chr>, porteModeleH <chr>,
#   porteModeleHSensGrain <chr>, beamModele <chr>, moulLumHeight <chr>,
#   moulLumModele <chr>, moulPiedHeight <chr>, moulPiedModele <chr>,
#   sousTotalKit <chr>, typeColor <chr>, porteModeleFacadeB <chr>,
#   porteModeleFacadeH <chr>, enErreur <chr>, estExtra <chr>, qte <chr>,
#   qteTr <chr>, aBomCustom <chr>, gTot <chr>, unit <chr>, …

8.2 Contrats

contrats_xmls_extracted_tables$DocumXML |> print()

$Contrat
# A tibble: 3,104 × 155
   codeClient2 dateValidite delaiPrevExped emplacementCre identCour nbJourValide
   <chr>       <chr>        <chr>          <chr>          <chr>     <chr>       
 1 ALaplante   2025/03/10   2              Interne        0         60          
 2 ABrealt     2025/04/12   2              Interne        0         <NA>        
 3 ACloutier   <NA>         2              Interne        0         60          
 4 RBouchard   2025/04/25   2              Interne        0         60          
 5 ABrealt     2025/05/27   2              Interne        0         <NA>        
 6 ALaplante   2025/04/10   2              Interne        0         60          
 7 ABrealt     2025/04/08   2              Interne        0         <NA>        
 8 CRobitaille 2025/03/10   2              Interne        0         60          
 9 ABrealt     2025/04/08   2              Interne        0         <NA>        
10 ALaplante   2025/03/27   2              Interne        0         60          
# ℹ 3,094 more rows
# ℹ 149 more variables: nomClient <chr>, projet <chr>, promotions <chr>,
#   qteItems <chr>, qteItemsCab <chr>, roleProprietaire <chr>, sorte <chr>,
#   type <chr>, typeClient <chr>, typeProcess <chr>, validCred <chr>,
#   ligne <chr>, cleEnMain <chr>, installateur <chr>, installation <chr>,
#   priseMesure <chr>, assemblage <chr>, edgeColle <chr>, gamme <chr>,
#   cleItem <chr>, createurCourriel <chr>, createurNom <chr>, …

$Disclaimer
# A tibble: 19,227 × 5
   condition terme           contrat_id  termeImage termeDescrip
   <chr>     <chr>           <chr>       <chr>      <chr>       
 1 ""        PriseMesure_100 P-000390-S1 <NA>       <NA>        
 2 ""        Electro_90      P-000390-S1 <NA>       <NA>        
 3 ""        PriseMesure_100 P-000390-S1 <NA>       <NA>        
 4 ""        Electro_90      P-000390-S1 <NA>       <NA>        
 5 ""        PriseMesure_100 P-000390-S1 <NA>       <NA>        
 6 ""        Electro_90      P-000390-S1 <NA>       <NA>        
 7 ""        PriseMesure_100 P-000390-S2 <NA>       <NA>        
 8 ""        Electro_90      P-000390-S2 <NA>       <NA>        
 9 ""        Contrainte_10_1 P-000390-S2 <NA>       <NA>        
10 ""        Comptoir_02_1   P-000390-S2 <NA>       <NA>        
# ℹ 19,217 more rows

$Etape
# A tibble: 9,225 × 6
   createur            dateCreation emplacement  statut tempsCreation contrat_id
   <chr>               <chr>        <chr>        <chr>  <chr>         <chr>     
 1 alaplante           2025/01/09   Manufacturi… Saisie 2025/01/09 1… P-000390-…
 2 alaplante           2025/01/09   Manufacturi… Saisie 2025/01/09 1… P-000390-…
 3 alaplante           2025/01/09   Manufacturi… Saisie 2025/01/09 1… P-000390-…
 4 abreault            2025/01/13   Manufacturi… Saisie 2025/01/13 1… P-000390-…
 5 abreault            2025/01/13   Manufacturi… Saisie 2025/01/13 1… P-000390-…
 6 abreault            2025/01/13   Manufacturi… Saisie 2025/01/13 1… P-000390-…
 7 abreault            2025/02/25   Manufacturi… Saisie 2025/02/25 0… P-000554-…
 8 abreault            2025/02/25   Manufacturi… Saisie 2025/02/25 0… P-000554-…
 9 abreault            2025/02/25   Manufacturi… Saisie 2025/02/25 0… P-000554-…
10 rbouchard@avivia.ca 2025/02/25   Manufacturi… Saisie 2025/02/25 1… P-000715-…
# ℹ 9,215 more rows

$SommaireKit
# A tibble: 37,983 × 7
   code  no    ligne  pourcEsc pourcEscSup sousTotal contrat_id 
   <chr> <chr> <chr>  <chr>    <chr>       <chr>     <chr>      
 1 k01   1     Custom 0        0           8885.54   P-000390-S1
 2 k02   2     Custom 0        0           4085.66   P-000390-S1
 3 k01   1     Custom 0        0           8885.54   P-000390-S1
 4 k02   2     Custom 0        0           4085.66   P-000390-S1
 5 k01   1     Custom 0        0           8885.54   P-000390-S1
 6 k02   2     Custom 0        0           4085.66   P-000390-S1
 7 k01   3     Custom 0        0           1048.6    P-000390-S2
 8 k02   2     Custom 0        0           2340.31   P-000390-S2
 9 k01   <NA>  <NA>   0        0           <NA>      P-000390-S2
10 k01   3     Custom 0        0           1048.6    P-000390-S2
# ℹ 37,973 more rows

$Lumiere
# A tibble: 2,826 × 3
   modele       qte   contrat_id 
   <chr>        <chr> <chr>      
 1 PUCK120mm_NI 2     P-000390-S1
 2 PUCK79mm_NI  5     P-000390-S1
 3 PUCK120mm_NI 2     P-000390-S1
 4 PUCK79mm_NI  5     P-000390-S1
 5 PUCK120mm_NI 2     P-000390-S1
 6 PUCK79mm_NI  5     P-000390-S1
 7 PUCK79mm_WH  4     P-000390-S2
 8 PUCK79mm_WH  4     P-000390-S2
 9 PUCK79mm_WH  4     P-000390-S2
10 PUCK79mm_WH  4     P-000554-S1
# ℹ 2,816 more rows

contrats_xmls_extracted_tables$EveXML |> print()

$KitMurContour
# A tibble: 3,078 × 119
   epais      t_epais nom   gTot  unit  cost_fgfCumul cost_matCumul cost_moCumul
   <chr>      <chr>   <chr> <chr> <chr> <chr>         <chr>         <chr>       
 1 152.39999… "6\""   Cont… ***   ***   ***           ***           ***         
 2 152.39999… "6\""   Cont… ***   ***   ***           ***           ***         
 3 152.39999… "6\""   Cont… ***   ***   ***           ***           ***         
 4 152.39999… "6\""   Cont… ***   ***   ***           ***           ***         
 5 152.39999… "6\""   Cont… ***   ***   ***           ***           ***         
 6 152.39999… "6\""   Cont… ***   ***   ***           ***           ***         
 7 152.39999… "6\""   Cont… ***   ***   ***           ***           ***         
 8 152.39999… "6\""   Cont… ***   ***   ***           ***           ***         
 9 152.39999… "6\""   Cont… ***   ***   ***           ***           ***         
10 152.39999… "6\""   Cont… ***   ***   ***           ***           ***         
# ℹ 3,068 more rows
# ℹ 111 more variables: price_fgfCumul <chr>, price_matCumul <chr>,
#   price_moCumul <chr>, contrat_id <chr>, qte <chr>, cumulComptoir <chr>,
#   totalComptoir <chr>, porteModeleB <chr>, porteModeleBSensGrain <chr>,
#   porteModeleB_epais <chr>, t_porteModeleB_epais <chr>,
#   porteModeleFacadeBSensGrain <chr>, porteModeleFacadeB_epais <chr>,
#   t_porteModeleFacadeB_epais <chr>, porteModeleFacadeHSensGrain <chr>, …

$KitMur
# A tibble: 1,464 × 22
   epais       t_epais nom   qte   contrat_id aBomCustom enErreur estExtra unit 
   <chr>       <chr>   <chr> <chr> <chr>      <chr>      <chr>    <chr>    <chr>
 1 152.399999… "6\""   Mur   1     P-000390-… <NA>       <NA>     <NA>     <NA> 
 2 152.399999… "6\""   Mur   1     P-000390-… <NA>       <NA>     <NA>     <NA> 
 3 152.399999… "6\""   Mur   1     P-000554-… <NA>       <NA>     <NA>     <NA> 
 4 152.399999… "6\""   Mur   1     P-000715-… <NA>       <NA>     <NA>     <NA> 
 5 152.399999… "6\""   Mur   1     P-000715-… <NA>       <NA>     <NA>     <NA> 
 6 152.399999… "6\""   Mur   1     P-000773-… <NA>       <NA>     <NA>     <NA> 
 7 152.399999… "6\""   Mur   1     P-000828-… <NA>       <NA>     <NA>     <NA> 
 8 152.399999… "6\""   Mur   1     P-000907-… <NA>       <NA>     <NA>     <NA> 
 9 152.399999… "6\""   Mur   1     P-000907-… <NA>       <NA>     <NA>     <NA> 
10 152.399999… "6\""   Mur   1     P-000907-… <NA>       <NA>     <NA>     <NA> 
# ℹ 1,454 more rows
# ℹ 13 more variables: moulLumHeight <chr>, t_moulLumHeight <chr>,
#   beamHeight <chr>, t_beamHeight <chr>, code <chr>, gTot <chr>,
#   cost_fgfCumul <chr>, cost_matCumul <chr>, cost_moCumul <chr>,
#   price_fgfCumul <chr>, price_matCumul <chr>, price_moCumul <chr>,
#   items <chr>

$KitMuret
# A tibble: 1,551 × 113
   epais   t_epais haut  t_haut nom   qte   contrat_id cle   aBomCustom enErreur
   <chr>   <chr>   <chr> <chr>  <chr> <chr> <chr>      <chr> <chr>      <chr>   
 1 152.39… "6\""   914.… "36\"" Muret 1     P-000390-… <NA>  <NA>       <NA>    
 2 152.39… "6\""   914.… "36\"" Muret 1     P-000390-… <NA>  <NA>       <NA>    
 3 152.39… "6\""   914.… "36\"" Muret 1     P-000554-… <NA>  <NA>       <NA>    
 4 152.39… "6\""   914.… "36\"" Muret 1     P-000715-… <NA>  <NA>       <NA>    
 5 152.39… "6\""   914.… "36\"" Muret 1     P-000715-… <NA>  <NA>       <NA>    
 6 152.39… "6\""   914.… "36\"" Muret 1     P-000773-… <NA>  <NA>       <NA>    
 7 152.39… "6\""   914.… "36\"" Muret 1     P-000828-… <NA>  <NA>       <NA>    
 8 152.39… "6\""   914.… "36\"" Muret 1     P-000907-… <NA>  <NA>       <NA>    
 9 152.39… "6\""   914.… "36\"" Muret 1     P-000907-… <NA>  <NA>       <NA>    
10 152.39… "6\""   914.… "36\"" Muret <NA>  P-000907-… 199   <NA>       <NA>    
# ℹ 1,541 more rows
# ℹ 103 more variables: estExtra <chr>, unit <chr>, estBloqPrix <chr>,
#   sousTotal <chr>, sousTotalAutre <chr>, sousTotalCab <chr>,
#   sousTotalEff <chr>, sousTotalMoulure <chr>, sousTotalPanel <chr>,
#   sousTotalKitEff <chr>, porteModeleB <chr>, porteModeleBSensGrain <chr>,
#   porteModeleB_epais <chr>, t_porteModeleB_epais <chr>,
#   porteModeleFacadeBSensGrain <chr>, porteModeleFacadeB_epais <chr>, …

$KitRetombee
# A tibble: 1,512 × 106
   epais         t_epais haut  t_haut nom   qte   contrat_id aBomCustom enErreur
   <chr>         <chr>   <chr> <chr>  <chr> <chr> <chr>      <chr>      <chr>   
 1 152.39999999… "6\""   914.… "36\"" Reto… 1     P-000390-… <NA>       <NA>    
 2 152.39999999… "6\""   914.… "36\"" Reto… 1     P-000390-… <NA>       <NA>    
 3 152.39999999… "6\""   914.… "36\"" Reto… 1     P-000554-… <NA>       <NA>    
 4 152.39999999… "6\""   914.… "36\"" Reto… 1     P-000715-… <NA>       <NA>    
 5 152.39999999… "6\""   914.… "36\"" Reto… 1     P-000715-… <NA>       <NA>    
 6 152.39999999… "6\""   914.… "36\"" Reto… 1     P-000773-… <NA>       <NA>    
 7 152.39999999… "6\""   914.… "36\"" Reto… 1     P-000828-… <NA>       <NA>    
 8 152.39999999… "6\""   914.… "36\"" Reto… 1     P-000907-… <NA>       <NA>    
 9 152.39999999… "6\""   914.… "36\"" Reto… 1     P-000907-… <NA>       <NA>    
10 152.39999999… "6\""   914.… "36\"" Reto… 1     P-000907-… <NA>       <NA>    
# ℹ 1,502 more rows
# ℹ 97 more variables: estExtra <chr>, unit <chr>, estBloqPrix <chr>,
#   sousTotal <chr>, sousTotalAutre <chr>, sousTotalCab <chr>,
#   sousTotalEff <chr>, sousTotalMoulure <chr>, sousTotalPanel <chr>,
#   sousTotalKitEff <chr>, porteModeleB <chr>, porteModeleBSensGrain <chr>,
#   porteModeleB_epais <chr>, t_porteModeleB_epais <chr>,
#   porteModeleFacadeBSensGrain <chr>, porteModeleFacadeB_epais <chr>, …
…
